<?xml version="1.0" encoding="UTF-8"?>
<glyph name="acutecomb" format="1">
  <advance width="0"/>
  <unicode hex="0301"/>
  <outline>
    <contour>
      <point x="74" y="854" type="line"/>
      <point x="308" y="854" type="line"/>
      <point x="308" y="971" type="line"/>
      <point x="124" y="938" type="line"/>
      <point x="74" y="938" type="line"/>
    </contour>
    <contour>
      <point x="191" y="800" type="move" name="_top"/>
    </contour>
    <contour>
      <point x="191" y="971" type="move" name="top"/>
    </contour>
  </outline>
  <lib>
    <dict>
      <key>com.schriftgestaltung.Glyphs.lastChange</key>
      <string>2019-07-04 11:31:24 +0000</string>
    </dict>
  </lib>
</glyph>
