<?xml version="1.0" encoding="UTF-8"?>
<glyph name="aogonek" format="1">
  <advance width="419"/>
  <unicode hex="0105"/>
  <outline>
    <component base="a"/>
    <component base="uni0328" xOffset="169" yOffset="10"/>
  </outline>
  <lib>
    <dict>
      <key>com.schriftgestaltung.Glyphs.lastChange</key>
      <string>2019-07-05 21:30:23 +0000</string>
    </dict>
  </lib>
</glyph>
