<?xml version="1.0" encoding="UTF-8"?>
<glyph name="Idotaccent" format="1">
  <advance width="244"/>
  <unicode hex="0130"/>
  <outline>
    <contour>
      <point x="192" y="776" type="line"/>
      <point x="52" y="776" type="line"/>
      <point x="75" y="573" type="line"/>
      <point x="75" y="203" type="line"/>
      <point x="52" y="0" type="line"/>
      <point x="192" y="0" type="line"/>
      <point x="169" y="203" type="line"/>
      <point x="169" y="573" type="line"/>
    </contour>
    <contour>
      <point x="176" y="938" type="line"/>
      <point x="67" y="938" type="line"/>
      <point x="80" y="832" type="line"/>
      <point x="176" y="832" type="line"/>
    </contour>
    <contour>
      <point x="122" y="0" type="move" name="bottom"/>
    </contour>
    <contour>
      <point x="220" y="10" type="move" name="ogonek"/>
    </contour>
    <contour>
      <point x="122" y="938" type="move" name="top"/>
    </contour>
    <contour>
      <point x="20" y="862" type="move" name="topleft"/>
    </contour>
  </outline>
  <lib>
    <dict>
      <key>com.schriftgestaltung.Glyphs.lastChange</key>
      <string>2019-07-05 22:28:49 +0000</string>
    </dict>
  </lib>
</glyph>
