<?xml version="1.0" encoding="UTF-8"?>
<glyph name="igrave.sc" format="1">
  <advance width="232"/>
  <outline>
    <component base="dotlessi"/>
    <component base="gravecomb" xOffset="-69" yOffset="-211"/>
  </outline>
  <lib>
    <dict>
      <key>com.schriftgestaltung.Glyphs.lastChange</key>
      <string>2019-07-06 17:50:35 +0000</string>
    </dict>
  </lib>
</glyph>
