<?xml version="1.0" encoding="UTF-8"?>
<glyph name="m" format="1">
  <advance width="564"/>
  <unicode hex="006D"/>
  <note>
    m
  </note>
  <outline>
    <contour>
      <point x="192" y="670" type="line"/>
      <point x="238" y="587" type="line"/>
      <point x="238" y="0" type="line"/>
      <point x="344" y="0" type="line"/>
      <point x="324" y="164" type="line"/>
      <point x="324" y="670" type="line"/>
    </contour>
    <contour>
      <point x="376" y="670" type="line"/>
      <point x="412" y="587" type="line"/>
      <point x="412" y="0" type="line"/>
      <point x="522" y="0" type="line"/>
      <point x="502" y="164" type="line"/>
      <point x="502" y="670" type="line"/>
    </contour>
    <contour>
      <point x="150" y="0" type="line"/>
      <point x="150" y="670" type="line"/>
      <point x="42" y="670" type="line"/>
      <point x="60" y="504" type="line"/>
      <point x="60" y="166" type="line"/>
      <point x="42" y="0" type="line"/>
    </contour>
    <contour>
      <point x="107" y="670" type="line"/>
      <point x="107" y="586" type="line"/>
      <point x="463" y="586" type="line"/>
      <point x="463" y="670" type="line"/>
    </contour>
    <contour>
      <point x="284" y="0" type="move" name="bottom"/>
    </contour>
    <contour>
      <point x="284" y="670" type="move" name="top"/>
    </contour>
  </outline>
  <lib>
    <dict>
      <key>com.schriftgestaltung.Glyphs.lastChange</key>
      <string>2019-07-05 22:29:01 +0000</string>
    </dict>
  </lib>
</glyph>
