<?xml version="1.0" encoding="UTF-8"?>
<glyph name="racute" format="1">
  <advance width="372"/>
  <unicode hex="0155"/>
  <outline>
    <component base="r"/>
    <component base="acutecomb" xOffset="5" yOffset="-130"/>
  </outline>
  <lib>
    <dict>
      <key>com.schriftgestaltung.Glyphs.lastChange</key>
      <string>2019-07-05 22:29:01 +0000</string>
    </dict>
  </lib>
</glyph>
