<?xml version="1.0" encoding="UTF-8"?>
<glyph name="uni2476" format="1">
  <advance width="746"/>
  <unicode hex="2476"/>
  <outline>
    <component base="_part.petittrois" xOffset="210" yOffset="300"/>
    <component base="_part.dblparent"/>
  </outline>
  <lib>
    <dict>
      <key>com.schriftgestaltung.Glyphs.ComponentInfo</key>
      <array>
        <dict>
          <key>alignment</key>
          <integer>-1</integer>
          <key>index</key>
          <integer>0</integer>
          <key>name</key>
          <string>_part.petittrois</string>
        </dict>
        <dict>
          <key>alignment</key>
          <integer>-1</integer>
          <key>index</key>
          <integer>1</integer>
          <key>name</key>
          <string>_part.dblparent</string>
        </dict>
      </array>
      <key>com.schriftgestaltung.Glyphs.lastChange</key>
      <string>2019-07-05 11:35:05 +0000</string>
    </dict>
  </lib>
</glyph>
