<?xml version="1.0" encoding="UTF-8"?>
<glyph name="uni2085" format="1">
  <advance width="325"/>
  <unicode hex="2085"/>
  <outline>
    <component base="_part.petitcinq" xOffset="-20"/>
  </outline>
  <lib>
    <dict>
      <key>com.schriftgestaltung.Glyphs.ComponentInfo</key>
      <array>
        <dict>
          <key>alignment</key>
          <integer>-1</integer>
          <key>index</key>
          <integer>0</integer>
          <key>name</key>
          <string>_part.petitcinq</string>
        </dict>
      </array>
      <key>com.schriftgestaltung.Glyphs.lastChange</key>
      <string>2019-07-04 14:06:02 +0000</string>
      <key>com.schriftgestaltung.Glyphs.leftMetricsKey</key>
      <string>five</string>
      <key>com.schriftgestaltung.Glyphs.rightMetricsKey</key>
      <string>five</string>
    </dict>
  </lib>
</glyph>
