<?xml version="1.0" encoding="UTF-8"?>
<glyph name="uniE9A9" format="1">
  <advance width="444"/>
  <unicode hex="E9A9"/>
  <note>
    uniE9A9
  </note>
  <outline>
    <contour>
      <point x="399" y="862" type="line"/>
      <point x="35" y="863" type="line"/>
      <point x="60" y="659" type="line"/>
      <point x="60" y="395" type="line"/>
      <point x="291" y="395" type="line"/>
      <point x="291" y="86" type="line"/>
      <point x="44" y="87" type="line"/>
      <point x="44" y="0" type="line"/>
      <point x="410" y="-1" type="line"/>
      <point x="385" y="203" type="line"/>
      <point x="385" y="482" type="line"/>
      <point x="154" y="482" type="line"/>
      <point x="154" y="775" type="line"/>
      <point x="399" y="775" type="line"/>
    </contour>
    <contour>
      <point x="222" y="0" type="move" name="bottom"/>
    </contour>
    <contour>
      <point x="222" y="862" type="move" name="top"/>
    </contour>
  </outline>
  <lib>
    <dict>
      <key>com.schriftgestaltung.Glyphs.lastChange</key>
      <string>2019-07-05 12:17:13 +0000</string>
    </dict>
  </lib>
</glyph>
