<?xml version="1.0" encoding="UTF-8"?>
<glyph name="ygrave.sc" format="1">
  <advance width="454"/>
  <outline>
    <component base="y.sc"/>
    <component base="gravecomb" xOffset="46" yOffset="-130"/>
  </outline>
  <lib>
    <dict>
      <key>com.schriftgestaltung.Glyphs.lastChange</key>
      <string>2019-07-05 22:01:14 +0000</string>
    </dict>
  </lib>
</glyph>
