<?xml version="1.0" encoding="UTF-8"?>
<glyph name="ygrave.ss04" format="1">
  <advance width="582"/>
  <outline>
    <component base="y.ss04"/>
    <component base="gravecomb" xOffset="137" yOffset="-130"/>
  </outline>
  <lib>
    <dict>
      <key>com.schriftgestaltung.Glyphs.lastChange</key>
      <string>2019-07-07 06:30:44 +0000</string>
    </dict>
  </lib>
</glyph>
